{
    "description": "Packer template for building vagrant box of ubuntu focal 20 server",
    "variables": {
        "iso_url": "http://download.sn0wf4ke.eu/ubuntu-20.04.2-live-server-amd64.iso",
        "iso_checksum": "md5:aba7e22636c435c5008f5d059ae69a62",
        "keep_registered": "true",
        "iso_target_path": "iso-packer/",
        "headless": "true",
        "vm_description": "Ubuntu AMD64 Focal Server",
        "vm_version": "1.0.0",
        "output_directory": "output",
        "http_directory": "http",
        "ssh_username": "vagrant",
        "ssh_password": "vagrant",
        "memory": "4096",
        "cpus": "2",
        "vm_name": "ubuntu_focal_20_04_lts_server_packer_amd64"
    },
    "builders": [
        {
            "type": "virtualbox-iso",
            "guest_os_type": "Ubuntu_64",
            "output_directory": "{{ user `output_directory` }}",
            "hard_drive_interface": "sata",
            "iso_interface": "sata",
            "vboxmanage": [
                [ "modifyvm", "{{.Name}}", "--firmware", "EFI64" ],
                [ "modifyvm", "{{.Name}}", "--boot1", "disk" ],
                [ "modifyvm", "{{.Name}}", "--boot2", "dvd" ]
            ],
            "export_opts": [
                "--manifest",
                "--vsys",
                "0",
                "--description",
                "{{user `vm_description`}}",
                "--version",
                "{{user `vm_version`}}"
            ],
            "iso_urls": [
                "{{ user `iso_url` }}"
            ],
            "cd_files": ["./http/meta-data", "./http/virtualbox/user-data"],
            "cd_label": "cidata",
            "iso_checksum": "{{ user `iso_checksum` }}",
            "iso_target_path": "{{ user `iso_target_path` }}",
            "ssh_username": "{{user `ssh_username`}}",
            "ssh_password": "{{user `ssh_password`}}",
            "ssh_port": 22,
            "ssh_timeout": "15m",
            "disk_size": "40000",
            "guest_additions_mode": "disable",
            "virtualbox_version_file": ".vbox_version",
            "memory": "{{ user `memory` }}",
            "cpus": "{{ user `cpus` }}",
            "vm_name": "{{ user `vm_name` }}",
            "keep_registered": "{{user `keep_registered`}}",
            "headless": "{{user `headless`}}",
            "boot_wait": "3s",
            "boot_command": [
                "<esc><wait><wait>",
                "set gfxpayload=keep<wait><enter>",
                "linux <wait>",
                "/casper/vmlinuz <wait>",
                "autoinstall<wait><enter>",
                "initrd <wait>",
                "/casper/initrd<wait><enter>",
                "boot<enter>"
            ]
        },
        {
            "type": "hyperv-iso",
            "output_directory": "{{ user `output_directory` }}",
            "iso_urls": [
                "{{ user `iso_url` }}"
            ],
            "iso_checksum": "{{ user `iso_checksum` }}",
            "iso_target_path": "{{ user `iso_target_path` }}",
            "ssh_username": "{{user `ssh_username`}}",
            "ssh_password": "{{user `ssh_password`}}",
            "mac_address": "00155d05878c",
            "ssh_port": 22,
            "generation": 2,
            "cd_files": ["./http/meta-data", "./http/hyperv/user-data"],
            "cd_label": "cidata",
            "disk_size": "40000",
            "memory": "{{ user `memory` }}",
            "cpus": "{{ user `cpus` }}",
            "vm_name": "{{ user `vm_name` }}",
            "headless": "{{user `headless`}}",
            "boot_wait": "3s",
            "ssh_timeout": "60m",
            "boot_command": [
                "<esc><wait>",
                "set gfxpayload=keep<wait><enter>",
                "linux <wait>/casper/vmlinuz<wait> autoinstall<enter>",
                "initrd <wait>/casper/initrd<wait><enter>",
                "boot<enter>"
            ]
        }
    ],
    "provisioners": [
        {
            "type": "shell",
            "script": "scripts/virtualbox.sh",
            "execute_command": "sudo -S -E bash '{{.Path}}'",
            "only": [
                "virtualbox-iso"
            ]
        },
        {
            "type": "shell",
            "script": "scripts/cleanup.sh",
            "execute_command": "sudo -S -E bash '{{.Path}}'"
        }
    ],
    "post-processors": [
        [
            {
                "type": "vagrant",
                "compression_level": 9,
                "keep_input_artifact": true,
                "output": "output/{{ user `vm_name` }}-{{.Provider}}.box"
            },
            {
                "type": "vagrant-cloud",
                "box_tag": "sn0wf4k3/ubuntu-focal-server",
                "access_token": "{{user `vagrant_cloud_access_token`}}",
                "version": "{{user `vm_version`}}"
            }
        ]
    ]
}
